{
  "project_info": {
    "project_number": "300851550276",
    "project_id": "cuidapet-f41b9",
    "storage_bucket": "cuidapet-f41b9.appspot.com"
  },
  "client": [
    {
      "client_info": {
        "mobilesdk_app_id": "1:300851550276:android:2f6b3396e66c92b5b30411",
        "android_client_info": {
          "package_name": "br.com.lucas.cuidapet_mobile"
        }
      },
      "oauth_client": [
        {
          "client_id": "300851550276-vhdb2thlb8dd0hg6bukf6vvire99njhd.apps.googleusercontent.com",
          "client_type": 1,
          "android_info": {
            "package_name": "br.com.lucas.cuidapet_mobile",
            "certificate_hash": "93cc1f6e5d497f21ef21ab8661773d6a429cc26d"
          }
        },
        {
          "client_id": "300851550276-iur4p0jcqkd5rd5qfov4j40ogfjj5en4.apps.googleusercontent.com",
          "client_type": 3
        }
      ],
      "api_key": [
        {
          "current_key": "AIzaSyAREGJzm9_WyLWmtN04rPBkC8T4VG9UL28"
        }
      ],
      "services": {
        "appinvite_service": {
          "other_platform_oauth_client": [
            {
              "client_id": "300851550276-iur4p0jcqkd5rd5qfov4j40ogfjj5en4.apps.googleusercontent.com",
              "client_type": 3
            }
          ]
        }
      }
    }
  ],
  "configuration_version": "1"
}